6,19,1
10,0,21
2,10,13
0,27,1
8,24,13
16,22,2
8,18,1
10,1,6
8,21,1
6,8,13
37,4,1
8,2,23
23,17,2
16,21,11
11,5,1
23,24,1
5,30,1
9,6,3
5,0,121
18,3,1
7,4,7
36,7,1
9,5,7
2,37,4
16,3,6
17,6,1
35,7,1
2,6,23
5,6,43
10,6,1
9,37,6
36,35,6
4,23,5
37,0,3
6,7,13
2,22,1
9,4,3
12,24,17
4,17,4
37,35,4
1,5,62
3,0,28
5,7,34
1,2,40
26,24,1
16,12,3
20,24,2
11,16,4
7,0,84
3,37,1
16,1,12
9,23,1
14,4,2
5,36,8
7,10,9
17,5,3
19,5,2
5,16,23
19,3,1
2,18,3
6,4,15
10,9,2
35,0,3
8,17,1
0,26,5
3,6,17
11,33,2
8,5,37
24,27,1
8,1,48
5,18,5
37,5,5
1,6,15
18,1,1
23,8,1
1,3,14
23,12,1
36,1,1
17,16,2
36,24,1
4,2,26
36,6,5
16,7,9
8,30,3
2,36,6
18,6,2
14,2,4
21,5,8
9,0,10
17,1,4
21,3,1
36,0,6
8,9,2
23,5,3
35,24,1
17,3,2
5,10,6
11,9,7
2,7,26
34,2,1
6,37,6
1,9,3
23,0,10
19,24,1
7,26,5
6,11,6
16,24,18
17,9,2
10,24,2
3,7,10
36,16,3
0,2,142
10,20,2
24,7,11
4,8,9
33,2,1
21,9,3
16,10,2
9,35,4
3,23,7
3,24,2
8,19,1
5,12,8
12,0,15
37,11,2
16,19,3
36,3,1
21,10,2
6,0,42
0,19,3
24,11,5
16,8,4
36,8,2
21,0,10
0,16,38
0,34,1
18,23,1
35,6,1
17,18,9
37,12,3
4,0,27
14,0,1
8,26,7
1,24,21
21,4,1
9,7,1
1,23,1
3,2,13
11,2,7
12,1,2
2,16,33
0,33,1
7,30,1
36,9,6
7,20,5
19,7,1
18,0,2
17,0,10
26,1,1
12,3,1
3,8,10
7,21,2
3,14,2
3,4,21
16,4,3
2,24,55
2,26,3
8,0,76
5,3,26
36,37,9
37,16,5
5,4,19
18,4,1
5,2,53
6,24,2
1,20,2
1,4,16
21,22,1
14,6,1
12,11,3
9,12,1
8,10,4
2,9,10
17,36,1
0,30,12
26,10,1
35,5,3
2,17,3
16,9,10
21,1,3
23,7,1
37,24,1
35,2,2
35,8,2
20,0,14
0,1,168
8,7,56
11,21,1
17,7,1
35,16,2
12,2,12
2,20,5
24,0,107
24,4,3
6,16,9
3,9,3
11,0,7
6,12,1
1,7,77
24,5,13
21,2,4
