0.285714285714
2.14285714286
1.14285714286
0.142857142857
2.0
2.85714285714
0.285714285714
2.85714285714
0.571428571429
0.285714285714
0.285714285714
0.571428571429
0.142857142857
0.571428571429
0.857142857143
0.142857142857
0.285714285714
0.142857142857
0.714285714286
3.0
2.71428571429
2.0
0.428571428571
0.571428571429
1.71428571429
0.142857142857
0.714285714286
0.142857142857
0.428571428571
0.142857142857
0.142857142857
3.28571428571
0.142857142857
3.85714285714
0.285714285714
0.571428571429
0.285714285714
0.857142857143
2.57142857143
0.142857142857
0.285714285714
0.428571428571
0.285714285714
10.4285714286
1.71428571429
0.285714285714
0.142857142857
0.142857142857
0.571428571429
0.285714285714
1.14285714286
2.57142857143
1.28571428571
0.142857142857
0.428571428571
0.142857142857
0.714285714286
0.285714285714
0.142857142857
0.857142857143
0.714285714286
0.142857142857
0.857142857143
0.571428571429
0.142857142857
1.85714285714
0.142857142857
0.714285714286
0.285714285714
0.714285714286
0.142857142857
2.42857142857
1.57142857143
0.857142857143
0.428571428571
1.57142857143
0.285714285714
1.57142857143
0.571428571429
0.142857142857
0.142857142857
0.142857142857
2.71428571429
1.14285714286
0.714285714286
0.142857142857
0.142857142857
0.285714285714
0.428571428571
0.142857142857
4.85714285714
0.142857142857
0.285714285714
0.714285714286
0.142857142857
0.285714285714
0.285714285714
0.285714285714
0.285714285714
0.142857142857
1.42857142857
1.14285714286
0.285714285714
0.857142857143
0.428571428571
0.142857142857
0.142857142857
0.285714285714
1.14285714286
0.142857142857
0.285714285714
0.285714285714
0.714285714286
4.0
0.428571428571
0.571428571429
1.71428571429
0.142857142857
3.42857142857
1.14285714286
0.142857142857
0.142857142857
0.428571428571
0.428571428571
0.142857142857
0.714285714286
0.857142857143
0.571428571429
0.571428571429
3.14285714286
1.0
2.14285714286
0.142857142857
0.142857142857
4.0
0.142857142857
0.142857142857
0.571428571429
3.14285714286
0.142857142857
1.57142857143
0.571428571429
2.0
0.571428571429
2.57142857143
1.57142857143
0.285714285714
0.571428571429
0.142857142857
2.0
1.28571428571
1.71428571429
0.142857142857
4.42857142857
3.57142857143
0.142857142857
1.57142857143
0.571428571429
0.142857142857
1.28571428571
2.42857142857
0.285714285714
0.142857142857
0.428571428571
2.28571428571
3.85714285714
0.285714285714
0.285714285714
0.142857142857
0.285714285714
0.142857142857
2.57142857143
0.285714285714
0.142857142857
0.285714285714
0.428571428571
0.142857142857
0.714285714286
0.714285714286
0.428571428571
0.142857142857
0.285714285714
3.71428571429
0.571428571429
0.142857142857
27.5714285714
0.142857142857
0.142857142857
0.428571428571
0.285714285714
0.142857142857
0.857142857143
0.142857142857
3.85714285714
0.142857142857
0.285714285714
0.285714285714
0.142857142857
0.428571428571
3.14285714286
0.428571428571
1.14285714286
0.714285714286
0.714285714286
0.285714285714
0.285714285714
1.42857142857
0.428571428571
1.28571428571
0.142857142857
0.142857142857
0.142857142857
0.857142857143
0.142857142857
0.142857142857
0.142857142857
0.571428571429
0.285714285714
0.285714285714
0.142857142857
1.0
0.428571428571
1.0
0.142857142857
6.57142857143
1.57142857143
1.71428571429
0.142857142857
1.57142857143
0.428571428571
0.142857142857
0.285714285714
0.142857142857
0.714285714286
0.142857142857
0.714285714286
0.142857142857
0.285714285714
1.71428571429
0.285714285714
0.285714285714
0.285714285714
0.142857142857
0.285714285714
0.428571428571
0.571428571429
