Id,Label,Betweenness Centrality,Weighted Degree,Pagerank,Score
0,FRODO,39.2027777778,1008,0.1761650328,19.0940927248
1,SAM,75.3468700159,506,0.082861826,14.6731518092
2,GANDALF,48.1534252297,522,0.0934207146,13.2916926667
24,BILBO,98.339484127,288,0.0529918939,11.4492389174
7,PIPPIN,44.786202248,367,0.062477038,10.0888944311
8,MERRY,34.6368107769,323,0.0555307403,8.5327946531
6,BOROMIR,53.7568542569,221,0.0400328837,7.8057445024
5,ARAGORN,7.4719298246,497,0.0848149579,6.8038365923
3,LEGOLAS,39.9174062049,172,0.0331036149,6.1027005526
21,GLORFINDEL,65.3077380952,49,0.0127657425,3.4440459263
4,GIMLI,6.4734126984,170,0.0319960707,3.2776277008
10,CAVALEIROS NEGROS,25.8661236424,72,0.0153584201,3.0582298946
36,ELENDIL,20.4087643351,56,0.0142941111,2.5373904278
12,GOLLUM,10.9552631579,70,0.01746482,2.3748070144
37,ISILDUR,16.6301587302,51,0.0136646669,2.2630207679
23,HALDIR,33.9466250854,34,0.00967242,2.2349624085
30,TOM BOMBADIL,47.1178571429,24,0.0084375235,2.1209833349
32,GLOIN,18.2038220551,44,0.01122314,2.0792651751
17,GALADRIEL,15.1592257158,45,0.0124199549,2.0386211129
26,FREDEGAR BOLGER,40.8727073365,24,0.0077121762,1.9630914422
18,CELEBORN,25.7907989671,26,0.0088028478,1.807259203
11,SARUMAN,8.0218253968,45,0.0134397974,1.6928798938
35,GIL-GALAD,17.7815039493,29,0.0093230159,1.6877481406
9,SAURON,1.6,87,0.020178277,1.4109374842
19,ARWEN,22.0018303334,13,0.0060574501,1.2010580595
14,BALROG,18.4512987013,10,0.0056122118,1.0117044583
15,BILL SAMAMBAIA,9.0000626566,12,0.0059573413,0.8632960484
22,ERESTOR,17.9103174603,4,0.004762842,0.6987843158
27,HAM GAMGI,19.0398268398,2,0.0043590053,0.5495747791
33,GWAIHIR,7.9150793651,4,0.0048624527,0.5359491086
29,CEVADO CARRAPICHO,4.0083276373,6,0.0050824339,0.4962822403
34,SCADUFAX,4.8873015873,2,0.0043547274,0.349156424
13,SMEAGOL,1.2857142857,5,0.0050102647,0.3181693809
16,ELROND,0,208,0.0410151779,0
20,GILDOR,0,30,0.0085717103,0
25,LOBELIA,0,22,0.0073251932,0
28,MAGOTE,0,32,0.0088715194,0
