0.0984251968504
2.06692913386
1.27952755906
0.0984251968504
1.27952755906
0.196850393701
0.0984251968504
0.590551181102
0.295275590551
0.688976377953
0.0984251968504
1.27952755906
0.196850393701
0.0984251968504
2.26377952756
0.196850393701
1.08267716535
0.0984251968504
0.0984251968504
0.295275590551
0.0984251968504
0.0984251968504
0.295275590551
11.9094488189
0.0984251968504
0.688976377953
0.0984251968504
0.885826771654
0.0984251968504
0.0984251968504
0.688976377953
0.393700787402
0.590551181102
1.27952755906
0.0984251968504
0.0984251968504
2.26377952756
0.196850393701
4.23228346457
0.0984251968504
0.590551181102
0.590551181102
0.492125984252
0.295275590551
1.27952755906
0.0984251968504
0.295275590551
1.67322834646
0.393700787402
0.393700787402
6.10236220472
2.75590551181
3.74015748031
0.196850393701
3.34645669291
3.93700787402
0.0984251968504
0.295275590551
0.196850393701
0.393700787402
8.26771653543
0.0984251968504
1.1811023622
0.0984251968504
0.196850393701
0.787401574803
0.885826771654
0.295275590551
0.196850393701
2.26377952756
0.492125984252
0.0984251968504
0.295275590551
0.0984251968504
1.47637795276
0.196850393701
0.295275590551
0.196850393701
0.492125984252
1.67322834646
0.196850393701
0.590551181102
0.0984251968504
4.72440944882
0.492125984252
0.492125984252
1.47637795276
0.0984251968504
0.0984251968504
1.37795275591
0.0984251968504
0.0984251968504
0.196850393701
0.196850393701
2.55905511811
0.0984251968504
1.47637795276
0.885826771654
0.590551181102
0.196850393701
0.393700787402
0.787401574803
0.393700787402
0.984251968504
0.393700787402
0.0984251968504
0.590551181102
0.196850393701
0.295275590551
0.0984251968504
0.196850393701
0.590551181102
0.393700787402
0.295275590551
2.55905511811
0.0984251968504
0.590551181102
0.295275590551
0.984251968504
0.393700787402
0.0984251968504
0.590551181102
1.77165354331
0.196850393701
0.196850393701
0.393700787402
0.984251968504
0.295275590551
13.9763779528
0.196850393701
1.08267716535
0.885826771654
0.0984251968504
0.295275590551
0.196850393701
0.492125984252
0.393700787402
0.688976377953
0.0984251968504
0.0984251968504
0.787401574803
0.0984251968504
0.688976377953
0.196850393701
0.0984251968504
0.295275590551
0.0984251968504
0.196850393701
4.13385826772
0.295275590551
0.0984251968504
0.0984251968504
0.196850393701
0.492125984252
0.0984251968504
0.393700787402
0.295275590551
0.984251968504
0.0984251968504
0.0984251968504
0.0984251968504
0.885826771654
0.295275590551
2.65748031496
3.64173228346
0.0984251968504
0.295275590551
0.688976377953
2.06692913386
0.0984251968504
0.0984251968504
0.0984251968504
0.492125984252
0.0984251968504
1.27952755906
0.688976377953
0.196850393701
0.196850393701
3.24803149606
0.0984251968504
0.590551181102
0.492125984252
0.0984251968504
0.196850393701
0.0984251968504
0.984251968504
0.0984251968504
0.0984251968504
0.984251968504
0.196850393701
0.196850393701
2.06692913386
1.27952755906
5.41338582677
0.295275590551
0.0984251968504
7.48031496063
2.55905511811
0.492125984252
0.393700787402
0.885826771654
0.0984251968504
0.492125984252
1.87007874016
0.0984251968504
0.0984251968504
5.21653543307
0.196850393701
0.196850393701
0.196850393701
1.57480314961
0.0984251968504
0.0984251968504
0.295275590551
0.0984251968504
0.393700787402
0.984251968504
0.0984251968504
0.0984251968504
0.295275590551
0.295275590551
0.984251968504
0.688976377953
0.393700787402
0.295275590551
0.0984251968504
0.0984251968504
0.196850393701
0.196850393701
1.37795275591
16.5354330709
5.51181102362
0.0984251968504
0.0984251968504
0.0984251968504
0.196850393701
1.1811023622
0.492125984252
10.531496063
0.0984251968504
0.295275590551
0.885826771654
0.295275590551
0.688976377953
0.0984251968504
0.984251968504
7.57874015748
0.393700787402
1.27952755906
0.295275590551
