5,19,35
14,2,3
0,27,1
1,23,6
10,1,6
7,3,12
9,5,10
4,20,17
2,21,3
5,10,4
20,5,30
28,4,11
9,28,3
0,7,4
6,11,4
8,16,15
1,28,3
22,4,1
6,22,17
18,1,8
24,13,1
28,20,5
10,2,4
4,24,1
0,5,21
13,14,56
11,10,5
3,19,15
0,2,17
1,6,14
14,8,1
11,28,22
15,9,2
3,20,19
3,12,4
17,10,3
21,12,1
8,11,24
14,5,1
28,12,5
0,14,45
5,2,57
0,22,52
27,2,23
20,10,1
27,6,1
5,7,27
6,7,5
5,1,11
7,19,1
9,20,5
8,1,6
9,13,6
10,16,3
9,6,4
3,6,8
22,9,3
3,2,38
25,4,1
11,20,23
7,13,2
11,4,24
12,4,5
11,27,3
12,19,9
2,25,8
20,19,30
2,11,56
0,9,6
8,3,13
13,5,2
20,8,7
1,13,102
2,1,10
2,7,41
8,10,3
12,8,2
27,3,7
16,5,2
20,2,52
4,2,37
0,24,3
6,8,7
11,16,5
15,0,4
6,19,3
26,28,3
19,9,4
27,7,5
14,22,6
0,4,8
12,27,3
2,13,5
25,20,12
3,9,7
11,0,3
20,6,3
10,9,3
6,0,27
16,7,22
11,1,4
0,18,1
2,22,7
10,27,2
15,1,11
10,15,3
27,5,11
13,23,1
22,1,31
0,23,4
5,12,8
28,10,3
11,25,4
20,7,8
15,17,5
21,25,1
1,17,8
3,0,6
9,8,6
4,16,1
8,2,24
14,9,1
28,6,1
12,20,17
7,8,67
7,28,33
4,8,16
21,19,2
2,28,22
22,8,2
19,2,24
23,24,6
28,0,2
6,5,27
9,27,1
8,13,1
5,4,66
15,18,6
20,27,11
7,4,19
21,20,3
1,0,167
10,4,1
12,10,1
3,28,10
27,19,7
11,12,16
25,12,4
17,18,10
13,0,105
5,28,12
1,14,38
3,10,1
28,8,35
19,25,4
11,7,32
4,23,1
2,6,12
24,1,5
12,2,21
9,12,1
11,21,2
7,10,5
13,22,16
22,5,7
11,19,17
5,8,24
0,10,3
15,13,3
1,16,1
22,24,3
8,0,5
16,19,1
3,16,1
4,1,6
9,11,10
16,28,2
3,4,76
4,27,7
25,3,1
14,15,2
9,4,11
11,3,20
23,22,4
19,4,17
21,5,4
1,19,1
5,3,66
11,5,36
1,7,4
9,1,5
18,10,3
13,10,2
9,7,6
6,16,1
1,3,5
7,12,3
6,4,10
5,25,7
2,9,13
2,16,2
27,8,1
