Source,Target,Weight,Type
5,19,2.6578947368,Undirected
14,2,0.2278195489,Undirected
0,27,0.0759398496,Undirected
1,23,0.4556390977,Undirected
10,1,0.4556390977,Undirected
7,3,0.9112781955,Undirected
9,5,0.7593984962,Undirected
4,20,1.2909774436,Undirected
2,21,0.2278195489,Undirected
5,10,0.3037593985,Undirected
20,5,2.2781954887,Undirected
28,4,0.8353383459,Undirected
9,28,0.2278195489,Undirected
0,7,0.3037593985,Undirected
6,11,0.3037593985,Undirected
8,16,1.1390977444,Undirected
1,28,0.2278195489,Undirected
22,4,0.0759398496,Undirected
6,22,1.2909774436,Undirected
18,1,0.607518797,Undirected
24,13,0.0759398496,Undirected
28,20,0.3796992481,Undirected
10,2,0.3037593985,Undirected
4,24,0.0759398496,Undirected
0,5,1.5947368421,Undirected
13,14,4.252631579,Undirected
11,10,0.3796992481,Undirected
3,19,1.1390977444,Undirected
0,2,1.2909774436,Undirected
1,6,1.0631578947,Undirected
14,8,0.0759398496,Undirected
11,28,1.6706766917,Undirected
15,9,0.1518796992,Undirected
3,20,1.4428571429,Undirected
3,12,0.3037593985,Undirected
17,10,0.2278195489,Undirected
21,12,0.0759398496,Undirected
8,11,1.822556391,Undirected
14,5,0.0759398496,Undirected
28,12,0.3796992481,Undirected
0,14,3.4172932331,Undirected
5,2,4.3285714286,Undirected
0,22,3.9488721805,Undirected
27,2,1.7466165414,Undirected
20,10,0.0759398496,Undirected
27,6,0.0759398496,Undirected
5,7,2.0503759399,Undirected
6,7,0.3796992481,Undirected
5,1,0.8353383459,Undirected
7,19,0.0759398496,Undirected
9,20,0.3796992481,Undirected
8,1,0.4556390977,Undirected
9,13,0.4556390977,Undirected
10,16,0.2278195489,Undirected
9,6,0.3037593985,Undirected
3,6,0.607518797,Undirected
22,9,0.2278195489,Undirected
3,2,2.8857142857,Undirected
25,4,0.0759398496,Undirected
11,20,1.7466165414,Undirected
7,13,0.1518796992,Undirected
11,4,1.822556391,Undirected
12,4,0.3796992481,Undirected
11,27,0.2278195489,Undirected
12,19,0.6834586466,Undirected
2,25,0.607518797,Undirected
20,19,2.2781954887,Undirected
2,11,4.252631579,Undirected
0,9,0.4556390977,Undirected
8,3,0.9872180451,Undirected
13,5,0.1518796992,Undirected
20,8,0.5315789474,Undirected
1,13,7.7458646617,Undirected
2,1,0.7593984962,Undirected
2,7,3.1135338346,Undirected
8,10,0.2278195489,Undirected
12,8,0.1518796992,Undirected
27,3,0.5315789474,Undirected
16,5,0.1518796992,Undirected
20,2,3.9488721805,Undirected
4,2,2.8097744361,Undirected
0,24,0.2278195489,Undirected
6,8,0.5315789474,Undirected
11,16,0.3796992481,Undirected
15,0,0.3037593985,Undirected
6,19,0.2278195489,Undirected
26,28,0.2278195489,Undirected
19,9,0.3037593985,Undirected
27,7,0.3796992481,Undirected
14,22,0.4556390977,Undirected
0,4,0.607518797,Undirected
12,27,0.2278195489,Undirected
2,13,0.3796992481,Undirected
25,20,0.9112781955,Undirected
3,9,0.5315789474,Undirected
11,0,0.2278195489,Undirected
20,6,0.2278195489,Undirected
10,9,0.2278195489,Undirected
6,0,2.0503759399,Undirected
16,7,1.6706766917,Undirected
11,1,0.3037593985,Undirected
0,18,0.0759398496,Undirected
2,22,0.5315789474,Undirected
10,27,0.1518796992,Undirected
15,1,0.8353383459,Undirected
10,15,0.2278195489,Undirected
27,5,0.8353383459,Undirected
13,23,0.0759398496,Undirected
22,1,2.3541353384,Undirected
0,23,0.3037593985,Undirected
5,12,0.607518797,Undirected
28,10,0.2278195489,Undirected
11,25,0.3037593985,Undirected
20,7,0.607518797,Undirected
15,17,0.3796992481,Undirected
21,25,0.0759398496,Undirected
1,17,0.607518797,Undirected
3,0,0.4556390977,Undirected
9,8,0.4556390977,Undirected
4,16,0.0759398496,Undirected
8,2,1.822556391,Undirected
14,9,0.0759398496,Undirected
28,6,0.0759398496,Undirected
12,20,1.2909774436,Undirected
7,8,5.0879699248,Undirected
7,28,2.5060150376,Undirected
4,8,1.215037594,Undirected
21,19,0.1518796992,Undirected
2,28,1.6706766917,Undirected
22,8,0.1518796992,Undirected
19,2,1.822556391,Undirected
23,24,0.4556390977,Undirected
28,0,0.1518796992,Undirected
6,5,2.0503759399,Undirected
9,27,0.0759398496,Undirected
8,13,0.0759398496,Undirected
5,4,5.0120300752,Undirected
15,18,0.4556390977,Undirected
20,27,0.8353383459,Undirected
7,4,1.4428571429,Undirected
21,20,0.2278195489,Undirected
1,0,12.6819548872,Undirected
10,4,0.0759398496,Undirected
12,10,0.0759398496,Undirected
3,28,0.7593984962,Undirected
27,19,0.5315789474,Undirected
11,12,1.215037594,Undirected
25,12,0.3037593985,Undirected
17,18,0.7593984962,Undirected
13,0,7.9736842105,Undirected
5,28,0.9112781955,Undirected
1,14,2.8857142857,Undirected
3,10,0.0759398496,Undirected
28,8,2.6578947368,Undirected
19,25,0.3037593985,Undirected
11,7,2.430075188,Undirected
4,23,0.0759398496,Undirected
2,6,0.9112781955,Undirected
24,1,0.3796992481,Undirected
12,2,1.5947368421,Undirected
9,12,0.0759398496,Undirected
11,21,0.1518796992,Undirected
7,10,0.3796992481,Undirected
13,22,1.215037594,Undirected
22,5,0.5315789474,Undirected
11,19,1.2909774436,Undirected
5,8,1.822556391,Undirected
0,10,0.2278195489,Undirected
15,13,0.2278195489,Undirected
1,16,0.0759398496,Undirected
22,24,0.2278195489,Undirected
8,0,0.3796992481,Undirected
16,19,0.0759398496,Undirected
3,16,0.0759398496,Undirected
4,1,0.4556390977,Undirected
9,11,0.7593984962,Undirected
16,28,0.1518796992,Undirected
3,4,5.7714285714,Undirected
4,27,0.5315789474,Undirected
25,3,0.0759398496,Undirected
14,15,0.1518796992,Undirected
9,4,0.8353383459,Undirected
11,3,1.5187969925,Undirected
23,22,0.3037593985,Undirected
19,4,1.2909774436,Undirected
21,5,0.3037593985,Undirected
1,19,0.0759398496,Undirected
5,3,5.0120300752,Undirected
11,5,2.7338345865,Undirected
1,7,0.3037593985,Undirected
9,1,0.3796992481,Undirected
18,10,0.2278195489,Undirected
13,10,0.1518796992,Undirected
9,7,0.4556390977,Undirected
6,16,0.0759398496,Undirected
1,3,0.3796992481,Undirected
7,12,0.2278195489,Undirected
6,4,0.7593984962,Undirected
5,25,0.5315789474,Undirected
2,9,0.9872180451,Undirected
2,16,0.1518796992,Undirected
27,8,0.0759398496,Undirected
