\0	Frodo	0.117626587	0.2076251723	0.1822452952	0.1644929449
1\	Sam	0.0704083324	0.1045016077	0.0856373225	0.0857307659
8	Merry	0.0671955208	0.0700505282	0.0629987009	0.066684942
24	Bilbo	0.0735792448	0.0562700965	0.0531784216	0.0603841294
2	Gandalf	0.0234743088	0.0969223702	0.088050679	0.0585126611
16	Elrond	0.041934499	0.0353697749	0.0359295954	0.0376315431
3	Legolas	0.0481315603	0.031924667	0.0315917766	0.0364790446
4	Gimli	0.0488008862	0.0303169499	0.0301520308	0.0354658136
5	Aragorn	0.0052018405	0.0980707395	0.0858350524	0.0352468563
6	Boromir	0.0120302125	0.0420303169	0.037915661	0.0267640315


4	Gimli	0.1187079944	0.0631578947	0.0555499918	0.0746787782
0	Frodo	0.0321138055	0.0909774436	0.0824584224	0.062223367
13	Gollum	0.0375265045	0.0567669173	0.0524027084	0.0481499365
8	Merry	0.0448243957	0.0486842105	0.0454201934	0.0462789878
3	Legolas	0.0279662542	0.0580827068	0.0508745512	0.0435572627
6	Boromir	0.0738090649	0.0270676692	0.0266412738	0.037615934
28	Treebeard	0.0437179537	0.0323308271	0.0352967337	0.0368132127
5	Aragorn	0.0070318825	0.0879699248	0.0771427676	0.0362716251
19	Eomer	0.0280722721	0.0319548872	0.0313096923	0.0303970346
27	Shadowfax	0.0947755632	0.0156015038	0.0175274838	0.0295933504

1	Sam	0.090124643	0.0943670151	0.0871161585	0.0904872724
0	Frodo	0.0632540636	0.1042392567	0.0938386524	0.0852119492
7	Pippin	0.0622851229	0.1004645761	0.0862480344	0.081417075
2	Gandalf	0.0232519193	0.0955284553	0.0861672663	0.05762947
8	Merry	0.0517284368	0.0647502904	0.0569085162	0.0575505456
19	Faramir	0.073978255	0.0455865273	0.0406788096	0.0515746484
5	Aragorn	0.0143032842	0.0807200929	0.0720945587	0.0436623027
20	Theoden	0.0550931636	0.0278745645	0.0272323564	0.0347107242
22	Eomer	0.0201807272	0.037456446	0.0345580434	0.0296713638
32	Galadriel	0.0870680033	0.0133565621	0.0179792129	0.027549136


Frodo	0.1644929449	0.062223367	0.0852119492	0.3119282611
Sam	0.0857307659	0.0117362986	0.0904872724	0.1879543369
Merry	0.066684942	0.0462789878	0.0575505456	0.1705144754
Gimli	0.0354658136	0.0746787782	0.0208530887	0.1309976805
Gandalf	0.0585126611	0	0.05762947	0.1161421311
Aragorn	0.0352468563	0.0362716251	0.0436623027	0.1151807841
Legolas	0.0364790446	0.0435572627	0.0236088185	0.1036451258

\begin{table}[!ht]
\centering
\footnotesize
\caption{Legenda}
\label{situacao_entidades}
\begin{tabular}{ccccc|c}
\toprule
\multirow{2}{*}{\rule{0pt}{1.5em}\bf Entidades Influentes} & \multirow{2}{*}{\rule{0pt}{1.5em}\bf Situação} &  \multicolumn{3}{c}{\bf Posição (ranking)} & \\
\cmidrule(r){3-5}
 &    \rule{0pt}{1em}\bf SA   & \bf DT & \bf RR & {\bf Score}\\ 
\midrule
Frodo	 & 0.1644     & 0.0622	 & 0.0852   & 0.3119 \\
Sam	 	 & 0.0857	  & 0.0117	 & 0.0904   &	0.1879 \\
Merry	 & 0.0666	  & 0.0462 	 & 0.0575	& 0.1705 \\
Gimli	 & 0.0354	  & 0.0746	 & 0.0208	& 0.1309 \\
Gandalf	 & 0.0585	  & 0.000	 & 0.0576	& 0.1161 \\
Aragorn	 & 0.0352	  & 0.0362	 & 0.0436   &	0.1151 \\
Legolas	 & 0.0364	  & 0.0435	 & 0.0236	& 0.1036 \\
\bottomrule
\end{tabular}
\end{table}




===================================================================================================================
0	Frodo	0.0667646394	0.2004971002	0.1773303574	0.1333969493
2	Gandalf	0.0359793448	0.1062551781	0.0984470374	0.0721996904
24	Bilbo	0.1177351232	0.0575807788	0.0536820999	0.0713955304
7	Pippin	0.0692739385	0.0735294118	0.06324415	0.0685515234
1	Sam	0.0210121747	0.1029411765	0.085312746	0.0569322066
6	Boromir	0.0697909467	0.0455675228	0.043256862	0.0516221997
8	Merry	0.031215056	0.0650372825	0.0571805633	0.0487818551
5	Aragorn	0.0084483014	0.1016984258	0.0890029901	0.0424452807
3	Legolas	0.0472869506	0.0345898923	0.0342750832	0.0382727509
4	Gimli	0.0123754181	0.0337613919	0.0332272039	0.0240339235

0	Frodo	0.0548165385	0.1049120679	0.0992158303	0.0829416509
9	Sauron	0.2264125395	0.022134627	0.023935158	0.0493177204
1	Sam	0.0119908827	0.0924802911	0.0943593244	0.0471225071
22	Faramir	0.0654709217	0.0391146149	0.0395792877	0.0466249625
2	Gandalf	0.0060029639	0.118253487	0.1019124118	0.0416679616
20	Theoden	0.0222039453	0.0512431777	0.0480973507	0.0379660824
19	Eomer	0.0339691527	0.0366889024	0.035183288	0.0352629482
11	Saruman	0.0115545771	0.0618556701	0.0560438297	0.0342153083
27	Scadufax	0.0754808765	0.0215281989	0.0226278904	0.033252903
14	Smeagol	0.0469354543	0.0212249848	0.0239858961	0.0288028052


0	Frodo	0.0283543234	0.0917958979	0.0868660525	0.0609206062
1	Sam	0.0919932319	0.0812906453	0.0795264896	0.0840948539
2	Gandalf	0.0452539496	0.0987993997	0.088773345	0.0734904872
3	Legolas	0.0183701784	0.0332666333	0.0309803221	0.0266523834
4	Gimli	0.009778187	0.0357678839	0.0329865049	0.0225958819
5	Aragorn	0.0346060211	0.0772886443	0.0693423411	0.0570280628
6	Boromir	0.008309341	0.0135067534	0.0146097212	0.0117919735
7	Pippin	0.066551213	0.0967983992	0.0845624225	0.0816708713
8	Merry	0.0358529757	0.0667833917	0.0595014878	0.0522284536
9	Sauron	0.0193900304	0.0187593797	0.019744708	0.0192937165


Frodo	  & 0.1333   & 0.0829   & 0.0609   & 0.2772 \\
Gandalf   & 0.0721   & 0.0734   & 0.0734   & 0.2191 \\
Sam		  & 0.0569   & 0.0471   & 0.0840   & 0.1881 \\
Merry	  & 0.0487   & 0.0161   & 0.0522   & 0.1171 \\
Aragorn   & 0.0424   & 0 		& 0.0570   & 0.0994 \\
Boromir   & 0.0516   & 0.0168   & 0.0117   & 0.0802 \\
Gimli 	  & 0.0240   & 0.0188   & 0.0225   & 0.0655 \\
=================================================================================

Sam	0.1548596733	0.0990990991	0.0934948384	0.1127886054
Gandalf	0.0524959742	0.1153153153	0.1039103071	0.0856821863
Frodo	0.0236513688	0.1333333333	0.116299347	0.0715798468
Merry	0.039065735	0.0675675676	0.0627342684	0.0549135736
Pippin	0.0236513688	0.081981982	0.0726897269	0.0520414326
Aragorn	0.0327179664	0.0675675676	0.0627244239	0.0517591445
Gimli	0.0201288245	0.0567567568	0.0534772644	0.0393853814
Boromir	0.0133942949	0.0522522523	0.0491756027	0.0325280619
Galadriel	0.0416867955	0.0252252252	0.0299867935	0.0315927815
Isildur	0.0239906832	0.0342342342	0.0368024232	0.0311501314

Aragorn	0.1156132647	0.0973913043	0.0858328196	0.0988690608
Saruman	0.1426196111	0.0513043478	0.0506509648	0.0718301953
Sam	0.0535240647	0.0704347826	0.0601383054	0.0609764988
Uruk-Hai	0.0918820068	0.0486956522	0.0477806651	0.0597940013
Theoden	0.0378907199	0.0669565217	0.0593887815	0.0532120575
Gimli	0.0379130434	0.0539130435	0.0480323547	0.0461323373
Gandalf	0.0474109363	0.047826087	0.0431664931	 0.0460854023
Sauron	0.0787736568	0.032173913	0.0330418388	0.0437505012
Legolas	0.0177024769	0.0573913043	0.0499402333	0.0370206096
Frodo	0.0161984155	0.0556521739	0.0475930613	0.0350079035


Frodo	Frodo	0.1819650849	0.1204724409	0.1069762572	0.1328580043
Merry	Merry	0.0832343218	0.0708661417	0.0632525116	0.0549135736 0.0719901375
Sam	Sam	0.0727392853	0.0755905512	0.0672170311	0.0717637772
Aragorn	Aragorn	0.0573446263	0.0763779528	0.0676973925	0.0517591445 0.0988690608 0.0666823496
Gandalf	Gandalf	0.0631532009	0.0700787402	0.0614907467	0.0648033027
Pippin	Pippin	0.0531082728	0.0763779528	0.0668016564	0.0647101601
Legolas	Legolas	0.0513766968	0.062992126	0.0563826575	0.056719535
Theoden	Theoden	0.0351143338	0.0433070866	0.0408844496	0.0396156865
Gimli	Gimli	0.0270670933	0.042519685	0.03877709	0.0354706345
Faramir	Faramir	0.053215508	0.0251968504	0.0269181495	0.033047851
 
----------------------------------------------------------------------------------------------------------

Ingles

0	FRODO	108.163095238	904	0.1822442046	26.119634048
1	SAM		64.7437229437	455	0.08563681	    13.6130837269
8	MERRY	61.7893939394	305	0.062998324	    10.5888205923
24	BILBO	67.6595238095	245	0.0531781033	9.5883222504
2	GANDALF	21.5857142857	422	0.0880501521	9.2911540739
16	ELROND	38.5607142857	154	0.0359293804	5.9754668255
3	LEGOLAS	44.2591991342	139	0.0315915876	5.7924629876
4	GIMLI	44.8746753247	132	0.0301518503	5.6315732816
5	ARAGORN	4.7833333333	427	0.0858345387	5.5968053072
6	BOROMIR	11.0623376623	183	0.0379154341	4.2498279113

Portugues

0	FRODO	39.2027777778	1008	0.1761650328	19.0940927248
1	SAM	75.3468700159	506	0.082861826	14.6731518092
2	GANDALF	48.1534252297	522	0.0934207146	13.2916926667
24	BILBO	98.339484127	288	0.0529918939	11.4492389174
7	PIPPIN	44.786202248	367	0.062477038	10.0888944311
8	MERRY	34.6368107769	323	0.0555307403	8.5327946531
6	BOROMIR	53.7568542569	221	0.0400328837	7.8057445024
5	ARAGORN	7.4719298246	497	0.0848149579	6.8038365923
3	LEGOLAS	39.9174062049	172	0.0331036149	6.1027005526
21	GLORFINDEL	65.3077380952	49	0.0127657425	3.4440459263


Sam	Sam	42.7412698413	110	0.0934948384	7.6034246618
Gandalf	Gandalf	14.4888888889	128	0.1039103071	5.7760980911
Frodo	Frodo	6.5277777778	148	0.116299347	4.825416272
Merry	Merry	10.7821428571	75	0.0627342684	3.701891856
Pippin	Pippin	6.5277777778	91	0.0726897269	3.5082720511
Aragorn	Aragorn	9.0301587302	75	0.0627244239	3.4892421453
Gimli	Gimli	5.5555555556	63	0.0534772644	2.6550889529
Boromir	Boromir	3.6968253968	58	0.0491756027	2.1928160833
Galadriel	Galadriel	11.5055555556	28	0.0299867935	2.1297659755
Isildur	Isildur	6.6214285714	38	0.0368024232	2.0999255768


Frodo 26.119634048 19.0940927248 4.825416272
Sam 13.6130837269 14.6731518092 7.6034246618
Merry 10.5888205923 8.5327946531 3.701891856
Gandalf 9.2911540739 13.2916926667 5.7760980911
Aragorn 5.5968053072 6.8038365923 3.4892421453
Legolas 5.7924629876 6.1027005526 1.3772334084
GIMLI 5.6315732816 3.2776277008 2.6550889529 
Boromir 4.2498279113 7.8057445024 2.1928160833
Bilbo 9.5883222504 11.4492389174 0.9742906357
PIPPIN 2.66 10.0888944311 3.5082720511

-------------------------------------------------------------------------


4	GIMLI	73.3134920635	336	0.0555496594	11.1020077994
0	FRODO	19.8333333333	484	0.0824579289	9.2503428982
13	GOLLUM	23.1761904762	302	0.0524023948	7.1581376083
8	MERRY	27.6833333333	259	0.0454199216	6.879995839
3	LEGOLAS	17.2718253968	309	0.0508742467	6.4753746895
6	BOROMIR	45.5841269841	144	0.0266411144	5.5921160288
28	TREEBEARD	27	172	0.0352965225	5.4727806718
5	ARAGORN	4.3428571429	468	0.0771423059	5.3922663722
19	EOMER	17.3373015873	170	0.0313095049	4.5189292487
27	SHADOWFAX	58.5329365079	83	0.0175273789	4.3994507475

0	FRODO	26.4261904762	451	0.09136516	10.2879909613
13	GOLLUM	45.0166666667	310	0.0633977516	9.5999645197
28	BARBARVORE	59.3658730159	122	0.0338971606	6.2616194575
9	SAURON	108.218253968	78	0.0205126249	5.5736383768
11	SARUMAN	13.0277777778	221	0.0507219687	5.2660652876
1	SAM	3.6333333333	419	0.0903820558	5.1625843509
2	GANDALF	2.3857142857	417	0.0902670919	4.4781088486
14	SMEAGOL	22.5642857143	126	0.0278709437	4.2951790234
19	EOMER	19.1261904762	121	0.029672344	4.0950125194
27	SCADUFAX	33.5214285714	72	0.0193020266	3.5982055963

Aragorn	Aragorn	81.2761250564	112	0.0858328196	9.2103923445
Saruman	Saruman	100.2615865759	59	0.0506509648	6.6915198219
Sam	Sam	37.6274174586	81	0.0601383054	5.6804168331
Uruk-Hai	Uruk-Hai	64.5930507638	56	0.0477806651	5.5702583474
Theoden	Theoden	26.6371760981	77	0.0593887815	4.9571010729
Gimli	Gimli	26.6528694982	62	0.0480323547	4.2975721841
Gandalf	Gandalf	33.3298882303	55	0.0431664931	4.2931998433
Sauron	Sauron	55.3778807235	37	0.0330418388	4.0756863472
Legolas	Legolas	12.4448412604	66	0.0499402333	3.4487466212
Frodo	Frodo	11.3874861092	64	0.0475930613	3.2612479938

GIMLI 11.1020077994 2.0123963031 4.2975721841
FRODO 9.2503428982 10.2879909613 3.2612479938
SAM 1.7447591033 5.1625843509 5.6804168331
Aragorn 5.3922663722 0 9.2103923445
Gandalf 0 4.4781088486 4.2931998433
Theoden 0 3.028578529 4.9571010729
Saruman 0 5.2660652876 6.6915198219
Legolas 6.4753746895 0 3.4487466212
Merry 6.879995839 1.2333421445 1.9356785837
SCADUFAX 4.3994507475 3.5982055963 0
Boromir 5.5921160288 2.4178265111 0.5363576911
TreeBeard 5.4727806718 6.2616194575 0.420567178
Gollum 7.1581376083 9.5999645197 0.9103498477
SAURON 4.2333582793 5.5736383768 4.0756863472
SARUMAN 0 5.2660652876 6.6915198219
EOMER 4.5189292487 4.0950125194 1.2513550869
SMEAGOL 4.1729921978 4.2951790234 0

-------------------------------------------------------------------------

1	Sam	80.7224969475	325	0.0871156372	13.1721910765
0	Frodo	56.6551587302	359	0.0938380909	12.4042646703
7	Pippin	55.7873015873	346	0.0862475182	11.8518465641
2	Gandalf	20.8261904762	329	0.0861667507	8.3890957273
8	Merry	46.3319291819	223	0.0569081756	8.3776067417
19	Faramir	66.2605616606	157	0.0406785662	7.5076981047
5	Aragorn	12.8111111111	278	0.0720941273	6.3559015395
20	Theoden	49.3456349206	96	0.0272321934	5.0528243271
22	Eomer	18.0753968254	129	0.0345578366	4.3192469251
32	Galadriel	77.9847374847	46	0.0179791053	4.0103151912

7	PIPPIN	68.6943542569	386	0.0823250025	12.9721919882
1	SAM	75.7960678211	329	0.0816480929	12.6744621737
0	FRODO	46.5130952381	380	0.0906832034	11.7029467866
2	GANDALF	39.1384920635	403	0.0894200522	11.2145370831
8	MERRY	50.4607142857	267	0.0579012383	9.2055731989
5	ARAGORN	27.875	327	0.0712235167	8.6588858415
17	DENETHOR	56.5192640693	165	0.0361249404	6.9581832262
21	EOMER	24.7528138528	162	0.0359286555	4.3192469251 5.2423601313
10	CAVALEIROS NEGROS	66.7666666667	68	0.0187071467	4.3956730944
19	THEODEN	18.8942460317	128	0.0291776209	4.132344034


Frodo	Frodo	127.9214546633	153	0.1069762572	12.7930492888
Merry	Merry	58.5137282563	90	0.0632525116	6.9320127307
Sam	Sam	51.1357175869	96	0.0672170311	6.9102162413
Aragorn	Aragorn	40.3132722795	97	0.0676973925	6.4209197564
Gandalf	Gandalf	44.3967002623	89	0.0614907467	 6.2399841822
Pippin	Pippin	37.3351157942	97	0.0668016564	6.2310153726
Legolas	Legolas	36.1178178537	80	0.0563826575	5.4615889446
Theoden	Theoden	24.6853766672	55	0.0408844496	3.8146397905
Gimli	Gimli	19.0281666159	54	0.03877709	3.4155079979
Faramir	Faramir	37.4105020937	32	0.0269181495	3.1822153901


Frodo    & 12.404  (2º) & 11.702 (3º) & 12.793 (1º)  & 36.899 \\
Sam      & 13.172  (1º) & 12.674 (2º) & 6.91   (3º)  & 32.756 \\
Pippin   & 11.851  (3º) & 12.972 (1º) & 6.231  (6º)  & 31.054 \\
Gandalf  & 8.389   (4º) & 11.214 (4º) & 6.239  (5º)  & 25.842 \\
Merry    & 8.377   (5º) & 9.205  (5º) & 6.932  (2º)  & 24.514 \\
Aragorn  & 6.355   (7º) & 8.658  (6º) & 6.42   (4º)  & 21.433 \\
Eomer  	 & 4.319   (9º) & 5.242  (8º) & 5.242  (11º)  & 14.803 \\
