Id,Label
0,FRODO
1,SAM
2,GANDALF
3,LEGOLAS
4,GIMLI
5,ARAGORN
6,BOROMIR
7,PIPPIN
8,MERRY
9,SAURON
10,CAVALEIROS NEGROS
11,SARUMAN
12,LINGUA DE COBRA
14,SMEAGOL
15,LARACNA
16,UGLUK
17,GORBAG
18,SHAGRAT
19,EOMER
20,THEODEN
21,EOWYN
22,FARAMIR
23,MABLUNG
24,DAMROD
25,HAMA
27,SCADUFAX
