Id,Label
0,FRODO
1,SAM
2,GANDALF
3,LEGOLAS
4,GIMLI
5,ARAGORN
6,BOROMIR
7,PIPPIN
8,MERRY
9,SAURON
10,RINGWRAITHS
11,SARUMAN
12,GOLLUM
14,BALROG
15,BILL FERNY
16,ELROND
17,GALADRIEL
18,CELEBORN
19,ARWEN
20,GILDOR
21,GLORFINDEL
22,ERESTOR
23,HALDIR
24,BILBO
25,LOBELIA SACKVILLE-BAGGINS
26,FREDEGAR BOLGER
27,HAM GAMGEE
28,FARMER MAGGOT
29,BARLIMAN BUTTERBUR
30,TOM BOMBADIL
31,GOLDBERRY
33,GWAIHIR
34,SHADOWFAX
35,GIL-GALAD
36,ELENDIL
37,ISILDUR
